%YAML 1.1
%TAG !u! tag:unity3d.com,2011:
--- !u!1045 &1
EditorBuildSettings:
  m_ObjectHideFlags: 0
  serializedVersion: 2
  m_Scenes:
  - enabled: 1
    path: Assets/Scenes/MainMenu.unity
  - enabled: 1
    path: Assets/Scenes/Story.unity
  - enabled: 1
    path: Assets/Scenes/PetRoom.unity
  - enabled: 1
    path: Assets/Scenes/LevelEditor.unity
  - enabled: 1
    path: Assets/Scenes/LevelSelection.unity
  - enabled: 1
    path: Assets/Scenes/LoadingScreen.unity
  - enabled: 1
    path: Assets/Scenes/CurrentLevel.unity
  - enabled: 1
    path: Assets/Scenes/DeathScreen.unity
  - enabled: 1
    path: Assets/Scenes/WinningScreen.unity
  - enabled: 1
    path: Assets/Scenes/Settings.unity
  - enabled: 1
    path: Assets/Scenes/Credit.unity
